Examples of tblcheck in action • tblcheck
…
The correct answer uses dplyr::transmute() to divide the
height column by 2.54 (to convert height from
cm to in) and to multiply the mass column
by 2.205 (to convert kg to lb). Note that
transmute() keeps only the columns named in its
calculations, so our final table has only two columns.

starwars %>%
    transmute(
        height = height / 2.54,
        mass = mass * 2.205
    )
#> # A tibble: 87 × 2
#>    height  mass
#>     <dbl> <dbl>
#>  1   67.7 170. 
#>  2   65.7 165. 
#>  3   37.8  70.6
#>  4   79.5 300. 
#>  5   59.1 108. 
#>  6   70.1 265. 
#>  7   65.0 165. 
#>  8   38.2  70.6
#>  9   72.0 185. 
#> 10   71.7 170. 
#> # … with 77 more rows

In this example, the student uses dplyr::mutate(), which
is certainly a reasonable choice but not what was requested. As a
result, their submission contains more columns than expected.

starwars %>%
    mutate(
        height = height / 2.54,
        mass = mass * 2.205
    )
#> # A tibble: 87 × 14
#>    name      height  mass hair_…¹ skin_…² eye_c…³ birth…⁴ sex   gender
#>    <chr>      <dbl> <dbl> <chr>   <chr>   <chr>     <dbl> <chr> <chr> 
#>  1 Luke Sky…   67.7 170.  blond   fair    blue       19   male  mascu…
#>  2 C-3PO       65.7 165.  NA      gold    yellow    112   none  mascu…
#>  3 R2-D2       37.8  70.6 NA      white,… red        33   none  mascu…
#>  4 Darth Va…   79.5 300.  none    white   yellow     41.9 male  mascu…
#>  5 Leia Org…   59.1 108.  brown   light   brown      19   fema… femin…
#>  6 Owen Lars   70.1 265.  brown,… light   blue       52   male  mascu…
#>  7 Beru Whi…   65.0 165.  brown   light   blue       47   fema… femin…
#>  8 R5-D4       38.2  70.6 NA      white,… red        NA   none  mascu…
#>  9 Biggs Da…   72.0 185.  black   light   brown      24   male  mascu…
#> 10 Obi-Wan …   71.7 170.  auburn… fair    blue-g…    57   male  mascu…
#> # … with 77 more rows, 5 more variables: homeworld <chr>,
#> #   species <chr>, films <list>, vehicles <list>, starships <list>,
#> #   and abbreviated variable names ¹​hair_color, ²​skin_color,
#> #   ³​eye_color, ⁴​birth_year

Your table should not have columns named name,
hair_color, skin_color, or 9 more. But no need
to fret, try it again.

Here the student has done more or less the right thing, but they
specified the columns in the opposite order.

starwars %>%
    transmute(
        mass = mass * 2.205,
        height = height / 2.54
    )
#> # A tibble: 87 × 2
#>     mass height
#>    <dbl>  <dbl>
#>  1 170.    67.7
#>  2 165.    65.7
#>  3  70.6   37.8
#>  4 300.    79.5
#>  5 108.    59.1
#>  6 265.    70.1
#>  7 165.    65.0
#>  8  70.6   38.2
#>  9 185.    72.0
#> 10 170.    71.7
#> # … with 77 more rows
…
Someone knows what they’re doing :) Correct!

If the student were to somehow create columns with an incorrect
class, e.g. integer values where doubles were expected, tblcheck will
alert them to their mistake.

starwars %>%
    transmute(
        mass = as.integer(mass * 2.205),
        height = as.integer(height / 2.54)
    )
#> # A tibble: 87 × 2
#>     mass height
#>    <int>  <int>
#>  1   169     67
#>  2   165     65
#>  3    70     37
#>  4   299     79
#>  5   108     59
#>  6   264     70
#>  7   165     64
#>  8    70     38
#>  9   185     72
#> 10   169     71
#> # … with 77 more rows
Your table’s columns were not in the expected order. The first 2 columns
of your table should be height and mass. Give
it another try.

If the values are completely wrong — here the student is multiplying
height by 2.54 rather than dividing — then
tblcheck points out which column is incorrect and gives a hint about the
expected values.

starwars %>%
    transmute(
        height = height * 2.54,
        mass = mass * 2.205
    )
#> # A tibble: 87 × 2
#>    height  mass
#>     <dbl> <dbl>
#>  1   437. 170. 
#>  2   424. 165. 
#>  3   244.  70.6
#>  4   513. 300. 
#>  5   381  108. 
#>  6   452. 265. 
#>  7   419. 165. 
#>  8   246.  70.6
#>  9   465. 185. 
#> 10   462. 170. 
#> # … with 77 more rows
…
